\select@language {french}
\contentsline {chapter}{\numberline {1}Exercice 1}{2}
\contentsline {chapter}{\numberline {2}Exercice 2}{4}
\contentsline {chapter}{\numberline {3}Exercice 3}{5}
\contentsline {chapter}{\numberline {4}Exercice 4}{6}
\contentsline {chapter}{\numberline {5}Exercice 5}{7}
\contentsline {chapter}{\numberline {6}Exercice 6}{8}
\contentsline {chapter}{\numberline {7}Exercice 7}{9}
\contentsline {chapter}{\numberline {8}Exercice 8}{10}
\contentsline {chapter}{\numberline {9}Exercice 9}{11}
\contentsline {chapter}{\numberline {10}Exercice 10}{12}
